Chapter 4
…
##  ggplot2 2.2.1      purrr   0.2.4
##  tibble  1.3.4      dplyr   0.7.4
##  tidyr   0.7.2      stringr 1.2.0
##  readr   1.1.1      forcats 0.2.0

##  Conflicts  tidyverse_conflicts() 
##  dplyr::filter() masks stats::filter()
##  dplyr::lag()    masks stats::lag()

data("Weekly")
?Weekly
weekly <- as.tibble(Weekly)
weekly

## # A tibble: 1,089 x 9
##     Year   Lag1   Lag2   Lag3   Lag4   Lag5    Volume  Today Direction
##  * <dbl>  <dbl>  <dbl>  <dbl>  <dbl>  <dbl>     <dbl>  <dbl>    <fctr>
##  1  1990  0.816  1.572 -3.936 -0.229 -3.484 0.1549760 -0.270      Down
##  2  1990 -0.270  0.816  1.572 -3.936 -0.229 0.1485740 -2.576      Down
##  3  1990 -2.576 -0.270  0.816  1.572 -3.936 0.1598375  3.514        Up
##  4  1990  3.514 -2.576 -0.270  0.816  1.572 0.1616300  0.712        Up
##  5  1990  0.712  3.514 -2.576 -0.270  0.816 0.1537280  1.178        Up
##  6  1990  1.178  0.712  3.514 -2.576 -0.270 0.1544440 -1.372      Down
##  7  1990 -1.372  1.178  0.712  3.514 -2.576 0.1517220  0.807        Up
##  8  1990  0.807 -1.372  1.178  0.712  3.514 0.1323100  0.041        Up
##  9  1990  0.041  0.807 -1.372  1.178  0.712 0.1439720  1.253        Up
## 10  1990  1.253  0.041  0.807 -1.372  1.178 0.1336350 -2.678      Down
## # ... with 1,079 more rows
…
(i) Experiment with different combinations of predictors, including possible transformations and interactions, for each of the methods. Report the variables, method, and associated confusion matrix that appears to provide the best results on the held out data. Note that you should also experiment with values for K in the KNN classifier.

## Q 11 a-c,f

(a) Create a binary variable, mpg01, that contains a 1 if mpg contains a value above its median, and a 0 if mpg contains a value below its median. You can compute the median using the median() function. Note you may find it helpful to use the data.frame() function to create a single data set containing both mpg01 and the other Auto variables.

library(ISLR)
library(tidyverse)
data(Auto)
auto <- as.tibble(Auto)
auto <- auto %>% mutate(mpg01=ifelse(mpg>median(mpg),1,0))
auto

## # A tibble: 392 x 10
##      mpg cylinders displacement horsepower weight acceleration  year
##    <dbl>     <dbl>        <dbl>      <dbl>  <dbl>        <dbl> <dbl>
##  1    18         8          307        130   3504         12.0    70
##  2    15         8          350        165   3693         11.5    70
##  3    18         8          318        150   3436         11.0    70
##  4    16         8          304        150   3433         12.0    70
##  5    17         8          302        140   3449         10.5    70
##  6    15         8          429        198   4341         10.0    70
##  7    14         8          454        220   4354          9.0    70
##  8    14         8          440        215   4312          8.5    70
##  9    14         8          455        225   4425         10.0    70
## 10    15         8          390        190   3850          8.5    70
## # ... with 382 more rows, and 3 more variables: origin <dbl>, name <fctr>,
## #   mpg01 <dbl>
…
