…
```
## filter(): dplyr, stats
## lag():    dplyr, stats
```

```r
data("Weekly")
?Weekly
weekly <- as.tibble(Weekly)
weekly
```

```
## # A tibble: 1,089 x 9
##     Year   Lag1   Lag2   Lag3   Lag4   Lag5    Volume  Today Direction
##  * <dbl>  <dbl>  <dbl>  <dbl>  <dbl>  <dbl>     <dbl>  <dbl>    <fctr>
##  1  1990  0.816  1.572 -3.936 -0.229 -3.484 0.1549760 -0.270      Down
##  2  1990 -0.270  0.816  1.572 -3.936 -0.229 0.1485740 -2.576      Down
##  3  1990 -2.576 -0.270  0.816  1.572 -3.936 0.1598375  3.514        Up
##  4  1990  3.514 -2.576 -0.270  0.816  1.572 0.1616300  0.712        Up
##  5  1990  0.712  3.514 -2.576 -0.270  0.816 0.1537280  1.178        Up
##  6  1990  1.178  0.712  3.514 -2.576 -0.270 0.1544440 -1.372      Down
##  7  1990 -1.372  1.178  0.712  3.514 -2.576 0.1517220  0.807        Up
##  8  1990  0.807 -1.372  1.178  0.712  3.514 0.1323100  0.041        Up
##  9  1990  0.041  0.807 -1.372  1.178  0.712 0.1439720  1.253        Up
## 10  1990  1.253  0.041  0.807 -1.372  1.178 0.1336350 -2.678      Down
## # ... with 1,079 more rows
```
…
