…
i. Y = β0 + β1X + ε
ii. Y = β0 + β1X + β2X2 + ε
iii. Y = β0 +β1X +β2X2 +β3X3 +ε
iv. Y = β0 +β1X +β2X2 +β3X3 +β4X4 +ε.
Note you may find it helpful to use the data.frame() function
to create a single data set containing both X and Y .


```r
data.8c <- tibble(x=x,y=y)
data.8c
```

```
## # A tibble: 100 x 2
##             x          y
##         <dbl>      <dbl>
##  1 -0.6264538 -2.0317092
##  2  0.1836433  0.1583095
##  3 -0.8356286 -3.1431006
##  4  1.5952808 -3.3365321
##  5  0.3295078 -0.5422276
##  6 -0.8204684 -0.3995179
##  7  0.4874291  0.7289624
##  8  0.7383247  0.5582522
##  9  0.5757814  0.2969184
## 10 -0.3053884  1.1902636
## # ... with 90 more rows
```
…
