…
_(b) Cut the dendrogram at a height that results in three distinct clusters. Which states belong to which clusters?_


```r
clusters.complete.euc <- tibble(
  label=names(cutree(hcl.complete.euc,3)),
  cluster=as.character(cutree(hcl.complete.euc,3)))
clusters.complete.euc
```

```
## # A tibble: 50 x 2
##    label       cluster
##    <chr>       <chr>  
##  1 Alabama     1      
##  2 Alaska      1      
##  3 Arizona     1      
##  4 Arkansas    2      
##  5 California  1      
##  6 Colorado    2      
##  7 Connecticut 3      
##  8 Delaware    1      
##  9 Florida     1      
## 10 Georgia     2      
## # ... with 40 more rows
```
…
```r
hcl.complete.euc.scale <- USArrests %>% scale() %>% dist() %>% hclust()

hclust.data.scale <- dendro_data(hcl.complete.euc.scale)

clusters.complete.euc.scale <- tibble(
  label=names(cutree(hcl.complete.euc.scale,3)),
  cluster=as.character(cutree(hcl.complete.euc.scale,3)))
clusters.complete.euc.scale
```

```
## # A tibble: 50 x 2
##    label       cluster
##    <chr>       <chr>  
##  1 Alabama     1      
##  2 Alaska      1      
##  3 Arizona     2      
##  4 Arkansas    3      
##  5 California  2      
##  6 Colorado    2      
##  7 Connecticut 3      
##  8 Delaware    3      
##  9 Florida     2      
## 10 Georgia     1      
## # ... with 40 more rows
```
…
