…
## Q 10

_This question relates to the College data set._

_(a) Split the data into a training set and a test set. Using out-of-state tuition as the response and the other variables as the predictors, perform forward stepwise selection on the training set in order to identify a satisfactory model that uses just a subset of the predictors._


```r
data(College)
college <- as_tibble(College)
college
```

```
## # A tibble: 777 x 18
##    Private  Apps Accept Enroll Top10perc Top25perc F.Undergrad P.Undergrad
##  *  <fctr> <dbl>  <dbl>  <dbl>     <dbl>     <dbl>       <dbl>       <dbl>
##  1     Yes  1660   1232    721        23        52        2885         537
##  2     Yes  2186   1924    512        16        29        2683        1227
##  3     Yes  1428   1097    336        22        50        1036          99
##  4     Yes   417    349    137        60        89         510          63
##  5     Yes   193    146     55        16        44         249         869
##  6     Yes   587    479    158        38        62         678          41
##  7     Yes   353    340    103        17        45         416         230
##  8     Yes  1899   1720    489        37        68        1594          32
##  9     Yes  1038    839    227        30        63         973         306
## 10     Yes   582    498    172        21        44         799          78
## # ... with 767 more rows, and 10 more variables: Outstate <dbl>,
## #   Room.Board <dbl>, Books <dbl>, Personal <dbl>, PhD <dbl>,
## #   Terminal <dbl>, S.F.Ratio <dbl>, perc.alumni <dbl>, Expend <dbl>,
## #   Grad.Rate <dbl>
```
…
