Chapter 3
…
##  ggplot2 2.2.1      purrr   0.2.4
##  tibble  1.3.4      dplyr   0.7.4
##  tidyr   0.7.2      stringr 1.2.0
##  readr   1.1.1      forcats 0.2.0

##  Conflicts  tidyverse_conflicts() 
##  dplyr::filter() masks stats::filter()
##  dplyr::lag()    masks stats::lag()

data(Auto)
auto <- as.tibble(Auto)
auto

## # A tibble: 392 x 9
##      mpg cylinders displacement horsepower weight acceleration  year
##  * <dbl>     <dbl>        <dbl>      <dbl>  <dbl>        <dbl> <dbl>
##  1    18         8          307        130   3504         12.0    70
##  2    15         8          350        165   3693         11.5    70
##  3    18         8          318        150   3436         11.0    70
##  4    16         8          304        150   3433         12.0    70
##  5    17         8          302        140   3449         10.5    70
##  6    15         8          429        198   4341         10.0    70
##  7    14         8          454        220   4354          9.0    70
##  8    14         8          440        215   4312          8.5    70
##  9    14         8          455        225   4425         10.0    70
## 10    15         8          390        190   3850          8.5    70
## # ... with 382 more rows, and 2 more variables: origin <dbl>, name <fctr>
…
Q 13

13. In this exercise you will create some simulated data and will fit simple linear regression models to it. Make sure to use set.seed(1) prior to starting part (a) to ensure consistent results.

(a) Using the rnorm() function, create a vector, x, containing 100 observations drawn from a N (0, 1) distribution. This represents a feature, X. (b) Using the rnorm() function, create a vector, eps, containing 100 observations drawn from a N(0,0.25) distribution i.e.a normal distribution with mean zero and variance 0.25. (c) Using x and eps, generate a vector y according to the model Y =1+0.5X+. (3.39) What is the length of the vector y? What are the values of 0 and 1 in this linear model?

set.seed(1)
data13 <- tibble(
  x = rnorm(100,mean = 0, sd = 1),
  eps = rnorm(100,0, sqrt(0.25)),
  y = 1 + 0.5*x + eps)

data13

## # A tibble: 100 x 3
##             x         eps         y
##         <dbl>       <dbl>     <dbl>
##  1 -0.6264538 -0.31018334 0.3765898
##  2  0.1836433  0.02105794 1.1128796
##  3 -0.8356286 -0.45546082 0.1267249
##  4  1.5952808  0.07901439 1.8766548
##  5  0.3295078 -0.32729232 0.8374616
##  6 -0.8204684  0.88364363 1.4734094
##  7  0.4874291  0.35835374 1.6020683
##  8  0.7383247  0.45508711 1.8242495
##  9  0.5757814  0.19209268 1.4799834
## 10 -0.3053884  0.84108804 1.6883938
## # ... with 90 more rows
…
The fits are pretty similar, so no real improvement. RSE and R-squeared similar.

(h) Repeat (a)(f) after modifying the data generation process in such a way that there is less noise in the data. The model (3.39) should remain the same. You can do this by decreasing the variance of the normal distribution used to generate the error term  in (b). Describe your results.

data13h <- tibble(
  x = rnorm(100,mean = 0, sd = 1),
  eps = rnorm(100,0, sqrt(0.1)),
  y = 1 + 0.5*x + eps)

data13h

## # A tibble: 100 x 3
##              x         eps         y
##          <dbl>       <dbl>     <dbl>
##  1  0.40940184  0.28260444 1.4873054
##  2  1.68887329 -0.33118475 1.5132519
##  3  1.58658843  0.62339162 2.4166858
##  4 -0.33090780 -0.12131512 0.7132310
##  5 -2.28523554  0.52308667 0.3804689
##  6  2.49766159  0.47820364 2.7270344
##  7  0.66706617  0.02623607 1.3597692
##  8  0.54132734  0.17937100 1.4500347
##  9 -0.01339952 -0.32399068 0.6693096
## 10  0.51010842  0.10214362 1.3571978
## # ... with 90 more rows
…
smaller confidence intervals, lower RSE, higher R^2

Repeat (a)(f) after modifying the data generation process in such a way that there is more noise in the data. The model (3.39) should remain the same. You can do this by increasing the variance of the normal distribution used to generate the error term  in (b). Describe your results.

data13i <- tibble(
  x = rnorm(100,mean = 0, sd = 1),
  eps = rnorm(100,0, sqrt(0.5)),
  y = 1 + 0.5*x + eps)

data13h

## # A tibble: 100 x 3
##              x         eps         y
##          <dbl>       <dbl>     <dbl>
##  1  0.40940184  0.28260444 1.4873054
##  2  1.68887329 -0.33118475 1.5132519
##  3  1.58658843  0.62339162 2.4166858
##  4 -0.33090780 -0.12131512 0.7132310
##  5 -2.28523554  0.52308667 0.3804689
##  6  2.49766159  0.47820364 2.7270344
##  7  0.66706617  0.02623607 1.3597692
##  8  0.54132734  0.17937100 1.4500347
##  9 -0.01339952 -0.32399068 0.6693096
## 10  0.51010842  0.10214362 1.3571978
## # ... with 90 more rows
…
library(MASS)

## 
## Attaching package: 'MASS'

## The following object is masked from 'package:dplyr':
## 
##     select

data(Boston)
boston <- as_tibble(Boston)
boston

## # A tibble: 506 x 14
##       crim    zn indus  chas   nox    rm   age    dis   rad   tax ptratio
##  *   <dbl> <dbl> <dbl> <int> <dbl> <dbl> <dbl>  <dbl> <int> <dbl>   <dbl>
##  1 0.00632  18.0  2.31     0 0.538 6.575  65.2 4.0900     1   296    15.3
##  2 0.02731   0.0  7.07     0 0.469 6.421  78.9 4.9671     2   242    17.8
##  3 0.02729   0.0  7.07     0 0.469 7.185  61.1 4.9671     2   242    17.8
##  4 0.03237   0.0  2.18     0 0.458 6.998  45.8 6.0622     3   222    18.7
##  5 0.06905   0.0  2.18     0 0.458 7.147  54.2 6.0622     3   222    18.7
##  6 0.02985   0.0  2.18     0 0.458 6.430  58.7 6.0622     3   222    18.7
##  7 0.08829  12.5  7.87     0 0.524 6.012  66.6 5.5605     5   311    15.2
##  8 0.14455  12.5  7.87     0 0.524 6.172  96.1 5.9505     5   311    15.2
##  9 0.21124  12.5  7.87     0 0.524 5.631 100.0 6.0821     5   311    15.2
## 10 0.17004  12.5  7.87     0 0.524 6.004  85.9 6.5921     5   311    15.2
## # ... with 496 more rows, and 3 more variables: black <dbl>, lstat <dbl>,
## #   medv <dbl>
…
boston.nest$data[[1]]

## # A tibble: 506 x 2
##       crim value
##      <dbl> <dbl>
##  1 0.00632  18.0
##  2 0.02731   0.0
##  3 0.02729   0.0
##  4 0.03237   0.0
##  5 0.06905   0.0
##  6 0.02985   0.0
##  7 0.08829  12.5
##  8 0.14455  12.5
##  9 0.21124  12.5
## 10 0.17004  12.5
## # ... with 496 more rows
…
